{
    "Actor": {
        "types": ["character"],
        "character":{
            "tabs":[],
            "istemplate":false,
            "gtemplate":"Default",
            "sheets":[],
            "mod":"0",
            "rollmode":"1d20",
            "displayName":"",
            "tokenbar1":"",
            "shieldstat":"",
            "selector":false,
            "attributes":{},
            "citems":[],
            "rolls":{},
            "biography":""
        }
    },
    "Item": {
        "types": ["property","panel","sheettab","multipanel","group","cItem"],
        "property": {
            "attKey": "",
            "datatype":"",
            "dtypes":{
                "simpletext":"",
                "simplenumeric":"",
                "checkbox":"",
                "radio":"",
                "textarea":"",
                "list":"",
                "label":"",
                "badge":"",
                "table":""
            },
            "defvalue":"",
            "auto":"",
            "automax":"",
            "maxvisible":true,
            "listoptions":"",
            "editable":true,
            "haslabel":true,
            "labelformat":"N",
            "labelsize":"F",
            "inputsize":"F",
            "hasroll":false,
            "ishidden":false,
            "hasheader":true,
            "namecolumn": "Item",
            "hasunits":true,
            "hasactivation":false,
            "onlynames":"",
            "tableheight":"F",
            "rollname":"",
            "rollexp":"",
            "rollid":"",
            "radiotype":"",
            "group":{},
            "tag":""
        },
        "panel":{
            "panelKey": "",
            "title":"",
            "isLocked":false,
            "width":"",
            "wtypes":{
                "full":{
                    "value":"1"
                },
                "five-sixths":{
                    "value":"5/6"
                },
                "three-fourths":{
                    "value":"3/4"
                },

                "two-thirds":{
                    "value":"2/3"
                },
                "five-eigths":{
                    "value":"5/8"
                },
                "half":{
                    "value":"1/2"
                },
                "three-eigths":{
                    "value":"3/8"
                },
                "third":{
                    "value":"1/3"
                },
                "fourth":{
                    "value":"1/4"
                },
                "sixth":{
                    "value":"1/6"
                },
                "eigth":{
                    "value":"1/8"
                }
            },
            "columns":"",
            "ctypes":{
                "c1":{
                    "value":1
                },
                "c2":{
                    "value":2
                },
                "c3":{
                    "value":3
                },
                "c4":{
                    "value":4
                },
                "c5":{
                    "value":5
                },
                "c6":{
                    "value":6
                },
                "c7":{
                    "value":7
                },
                "c8":{
                    "value":8
                }
            },
            "alignment":"left",
            "contentalign":"left",
            "atypes":{
                "left":"",
                "center":"",
                "right":""
            },
            "condat":"",
            "condop":"NON",
            "condvalue":"",
            "backg":"D",
            "properties":[]
        },
        "multipanel":{
            "panelKey": "",
            "title":"",
            "width":"",
            "wtypes":{
                "full":{
                    "value":"1"
                },
                "five-sixths":{
                    "value":"5/6"
                },
                "three-fourths":{
                    "value":"3/4"
                },

                "two-thirds":{
                    "value":"2/3"
                },
                "five-eigths":{
                    "value":"5/8"
                },
                "half":{
                    "value":"1/2"
                },
                "three-eigths":{
                    "value":"3/8"
                },
                "third":{
                    "value":"1/3"
                },
                "fourth":{
                    "value":"1/4"
                },
                "sixth":{
                    "value":"1/6"
                },
                "eigth":{
                    "value":"1/8"
                }
            },
            "isLocked":false,
            "condat":"",
            "condop":"NON",
            "condvalue":"",
            "panels":[]
        },
        "sheettab":{
            "tabKey":"",
            "title":"",
            "controlby":"",
            "bytypes":{
                "public":"",
                "gamemaster":""
            },
            "condat":"",
            "condop":"NON",
            "condvalue":"",
            "panels":[]
        },
        "group":{
            "groupKey":"",
            "isUnique":false,
            "properties":[]
        },
        "cItem":{
            "ciKey":"",
            "isUnique":false,
            "uniqueGID":"",
            "usetype":"PAS",
            "selfdestruct":false,
            "ispermanent":false,
            "maxuses":1,
            "icon":"BOOK",
            "rechargable":false,
            "roll":"",
            "rollid":"",
            "rollname":"",
            "mods":[],
            "groups":[],
            "attributes":{},
            "description":""
        }
    }
}
